# Fdb version 3
["bibtex paper"] 1552935173 "paper.aux" "paper.bbl" "paper" 1552951089
  "./icml2018.bst" 1527188775 27146 2e03d99b59c4d77a0e4191e237e5b913 ""
  "paper.aux" 1552951088 1077 15d3cc3374136a9292f36dc5b260c5f6 ""
  "references.bib" 1552932821 5167 6c1e2fa847631b5b374c29964ac81510 ""
  (generated)
  "paper.bbl"
  "paper.blg"
["pdflatex"] 1552951087 "/Users/Andrew/Documents/GraduateSchool/Stanford/2019/WinterQuarter/CS234/project/icml2018_style/paper.tex" "/Users/Andrew/Documents/GraduateSchool/Stanford/2019/WinterQuarter/CS234/project/icml2018_style/paper.pdf" "paper" 1552951089
  "/Users/Andrew/Documents/GraduateSchool/Stanford/2019/WinterQuarter/CS234/project/figures/fixedDoseRegret.png" 1552864054 45684 db8b9d708b2a847ea570162a00da62d2 ""
  "/Users/Andrew/Documents/GraduateSchool/Stanford/2019/WinterQuarter/CS234/project/figures/fractionOfIncorrectDoses.png" 1552935761 81030 ac73d586f6e545725e61d4ac24893077 ""
  "/Users/Andrew/Documents/GraduateSchool/Stanford/2019/WinterQuarter/CS234/project/figures/lassoRegret.png" 1552864521 40011 50ee42752bca342b552b900cc5ffe69b ""
  "/Users/Andrew/Documents/GraduateSchool/Stanford/2019/WinterQuarter/CS234/project/figures/linUCBAlgorithm.png" 1552841940 219799 f2441c54ca1254fe6ceead6fd0ffef86 ""
  "/Users/Andrew/Documents/GraduateSchool/Stanford/2019/WinterQuarter/CS234/project/figures/linUCBRegret.png" 1552864305 43157 a179d52e1efbd7472f335bebae4609a8 ""
  "/Users/Andrew/Documents/GraduateSchool/Stanford/2019/WinterQuarter/CS234/project/icml2018_style/paper.aux" 1552951088 1077 15d3cc3374136a9292f36dc5b260c5f6 ""
  "/Users/Andrew/Documents/GraduateSchool/Stanford/2019/WinterQuarter/CS234/project/icml2018_style/paper.tex" 1552951085 49393 6bf2a984039c13fb08379d52250b37c3 ""
  "/usr/local/texlive/2018/texmf-dist/fonts/enc/dvips/base/8r.enc" 1480098666 4850 80dc9bab7f31fb78a000ccfed0e27cab ""
  "/usr/local/texlive/2018/texmf-dist/fonts/map/fontname/texfonts.map" 1511824771 3332 103109f5612ad95229751940c61aada0 ""
  "/usr/local/texlive/2018/texmf-dist/fonts/tfm/adobe/courier/pcrr7t.tfm" 1480098688 960 379cc0019370a9e0208a0a3f949f847a ""
  "/usr/local/texlive/2018/texmf-dist/fonts/tfm/adobe/courier/pcrr8r.tfm" 1480098688 1292 bd42be2f344128bff6d35d98474adfe3 ""
  "/usr/local/texlive/2018/texmf-dist/fonts/tfm/adobe/times/ptmb7t.tfm" 1480098689 2172 fd0c924230362ff848a33632ed45dc23 ""
  "/usr/local/texlive/2018/texmf-dist/fonts/tfm/adobe/times/ptmb8r.tfm" 1480098689 4524 6bce29db5bc272ba5f332261583fee9c ""
  "/usr/local/texlive/2018/texmf-dist/fonts/tfm/adobe/times/ptmr7t.tfm" 1480098689 2124 2601a75482e9426d33db523edf23570a ""
  "/usr/local/texlive/2018/texmf-dist/fonts/tfm/adobe/times/ptmr8r.tfm" 1480098689 4408 25b74d011a4c66b7f212c0cc3c90061b ""
  "/usr/local/texlive/2018/texmf-dist/fonts/tfm/adobe/times/ptmrc7t.tfm" 1480098689 2680 312a2d12b1f1df8ee0212e7ba1962402 ""
  "/usr/local/texlive/2018/texmf-dist/fonts/tfm/adobe/times/ptmri7t.tfm" 1480098689 2288 f478fc8fed18759effb59f3dad7f3084 ""
  "/usr/local/texlive/2018/texmf-dist/fonts/tfm/adobe/times/ptmri8r.tfm" 1480098689 4640 532ca3305aad10cc01d769f3f91f1029 ""
  "/usr/local/texlive/2018/texmf-dist/fonts/tfm/adobe/times/ptmro7t.tfm" 1480098689 2212 ddd058020f70d31af08b213e40125079 ""
  "/usr/local/texlive/2018/texmf-dist/fonts/tfm/adobe/times/ptmro8r.tfm" 1480098689 4548 f370a182a02c40d95c5554802dc0f174 ""
  "/usr/local/texlive/2018/texmf-dist/fonts/tfm/public/amsfonts/cmextra/cmex7.tfm" 1480098698 1004 54797486969f23fa377b128694d548df ""
  "/usr/local/texlive/2018/texmf-dist/fonts/tfm/public/amsfonts/cmextra/cmex9.tfm" 1480098698 996 a18840b13b499c08ac2de96a99eda4bc ""
  "/usr/local/texlive/2018/texmf-dist/fonts/tfm/public/cm/cmmi6.tfm" 1480098701 1512 f21f83efb36853c0b70002322c1ab3ad ""
  "/usr/local/texlive/2018/texmf-dist/fonts/tfm/public/cm/cmmi9.tfm" 1480098701 1524 d89e2d087a9828407a196f428428ef4a ""
  "/usr/local/texlive/2018/texmf-dist/fonts/tfm/public/cm/cmr6.tfm" 1480098701 1300 b62933e007d01cfd073f79b963c01526 ""
  "/usr/local/texlive/2018/texmf-dist/fonts/tfm/public/cm/cmr9.tfm" 1480098701 1292 6b21b9c2c7bebb38aa2273f7ca0fb3af ""
  "/usr/local/texlive/2018/texmf-dist/fonts/tfm/public/cm/cmsy6.tfm" 1480098701 1116 933a60c408fc0a863a92debe84b2d294 ""
  "/usr/local/texlive/2018/texmf-dist/fonts/tfm/public/cm/cmsy9.tfm" 1480098701 1116 25a7bf822c58caf309a702ef79f4afbb ""
  "/usr/local/texlive/2018/texmf-dist/fonts/tfm/public/cm/cmti10.tfm" 1480098701 1480 aa8e34af0eb6a2941b776984cf1dfdc4 ""
  "/usr/local/texlive/2018/texmf-dist/fonts/tfm/public/cm/cmti7.tfm" 1480098701 1492 86331993fe614793f5e7e755835c31c5 ""
  "/usr/local/texlive/2018/texmf-dist/fonts/tfm/public/cm/cmti9.tfm" 1480098701 1476 cccc6cc4935c18ec3d5623b77ecb8b74 ""
  "/usr/local/texlive/2018/texmf-dist/fonts/type1/public/amsfonts/cm/cmex10.pfb" 1480098733 30251 6afa5cb1d0204815a708a080681d4674 ""
  "/usr/local/texlive/2018/texmf-dist/fonts/type1/public/amsfonts/cm/cmmi10.pfb" 1480098733 36299 5f9df58c2139e7edcf37c8fca4bd384d ""
  "/usr/local/texlive/2018/texmf-dist/fonts/type1/public/amsfonts/cm/cmmi5.pfb" 1480098733 37912 77d683123f92148345f3fc36a38d9ab1 ""
  "/usr/local/texlive/2018/texmf-dist/fonts/type1/public/amsfonts/cm/cmmi6.pfb" 1480098733 37166 8ab3487cbe3ab49ebce74c29ea2418db ""
  "/usr/local/texlive/2018/texmf-dist/fonts/type1/public/amsfonts/cm/cmmi7.pfb" 1480098733 36281 c355509802a035cadc5f15869451dcee ""
  "/usr/local/texlive/2018/texmf-dist/fonts/type1/public/amsfonts/cm/cmmi9.pfb" 1480098733 36094 798f80770b3b148ceedd006d487db67c ""
  "/usr/local/texlive/2018/texmf-dist/fonts/type1/public/amsfonts/cm/cmr10.pfb" 1480098733 35752 024fb6c41858982481f6968b5fc26508 ""
  "/usr/local/texlive/2018/texmf-dist/fonts/type1/public/amsfonts/cm/cmr7.pfb" 1480098733 32762 224316ccc9ad3ca0423a14971cfa7fc1 ""
  "/usr/local/texlive/2018/texmf-dist/fonts/type1/public/amsfonts/cm/cmsy10.pfb" 1480098733 32569 5e5ddc8df908dea60932f3c484a54c0d ""
  "/usr/local/texlive/2018/texmf-dist/fonts/type1/public/amsfonts/cm/cmsy5.pfb" 1480098733 32915 7bf7720c61a5b3a7ff25b0964421c9b6 ""
  "/usr/local/texlive/2018/texmf-dist/fonts/type1/public/amsfonts/cm/cmsy7.pfb" 1480098733 32716 08e384dc442464e7285e891af9f45947 ""
  "/usr/local/texlive/2018/texmf-dist/fonts/type1/public/amsfonts/cm/cmti9.pfb" 1480098733 36310 f5ddc6715cc60deb16d9db5ded6a9391 ""
  "/usr/local/texlive/2018/texmf-dist/fonts/type1/urw/courier/ucrr8a.pfb" 1480098746 45758 19968a0990191524e34e1994d4a31cb6 ""
  "/usr/local/texlive/2018/texmf-dist/fonts/type1/urw/times/utmb8a.pfb" 1480098746 44729 811d6c62865936705a31c797a1d5dada ""
  "/usr/local/texlive/2018/texmf-dist/fonts/type1/urw/times/utmr8a.pfb" 1480098746 46026 6dab18b61c907687b520c72847215a68 ""
  "/usr/local/texlive/2018/texmf-dist/fonts/type1/urw/times/utmri8a.pfb" 1480098746 45458 a3faba884469519614ca56ba5f6b1de1 ""
  "/usr/local/texlive/2018/texmf-dist/fonts/vf/adobe/courier/pcrr7t.vf" 1480098757 1344 6ff472164bf9de0fb2e864b28ac156d9 ""
  "/usr/local/texlive/2018/texmf-dist/fonts/vf/adobe/times/ptmb7t.vf" 1480098758 1372 788387fea833ef5963f4c5bffe33eb89 ""
  "/usr/local/texlive/2018/texmf-dist/fonts/vf/adobe/times/ptmr7t.vf" 1480098758 1380 0ea3a3370054be6da6acd929ec569f06 ""
  "/usr/local/texlive/2018/texmf-dist/fonts/vf/adobe/times/ptmrc7t.vf" 1480098758 1948 7330aeef3af211edff3b35fb2c12a0fd ""
  "/usr/local/texlive/2018/texmf-dist/fonts/vf/adobe/times/ptmri7t.vf" 1480098758 1384 a9d8adaf491ce34e5fba99dc7bbe5f39 ""
  "/usr/local/texlive/2018/texmf-dist/fonts/vf/adobe/times/ptmro7t.vf" 1480098758 1384 5daa35f30ad788d676a07a579b5db7fa ""
  "/usr/local/texlive/2018/texmf-dist/tex/context/base/mkii/supp-pdf.mkii" 1480098806 71627 94eb9990bed73c364d7f53f960cc8c5b ""
  "/usr/local/texlive/2018/texmf-dist/tex/generic/ifxetex/ifxetex.sty" 1480098815 1458 43ab4710dc82f3edeabecd0d099626b2 ""
  "/usr/local/texlive/2018/texmf-dist/tex/generic/oberdiek/gettitlestring.sty" 1480098815 8237 3b62ef1f7e2c23a328c814b3893bc11f ""
  "/usr/local/texlive/2018/texmf-dist/tex/generic/oberdiek/hobsub-generic.sty" 1522444781 185313 3e16abd014cb2c328020e45d63ed7f45 ""
  "/usr/local/texlive/2018/texmf-dist/tex/generic/oberdiek/hobsub-hyperref.sty" 1480098815 70864 bcd5b216757bd619ae692a151d90085d ""
  "/usr/local/texlive/2018/texmf-dist/tex/latex/amsmath/amsbsy.sty" 1523134290 2211 ca7ce284ab93c8eecdc6029dc5ccbd73 ""
  "/usr/local/texlive/2018/texmf-dist/tex/latex/amsmath/amsgen.sty" 1523134290 4161 7f6eb9092061a11f87d08ed13515b48d ""
  "/usr/local/texlive/2018/texmf-dist/tex/latex/amsmath/amsmath.sty" 1523134290 84354 7292177bb735c466b78634ee4efd537e ""
  "/usr/local/texlive/2018/texmf-dist/tex/latex/amsmath/amsopn.sty" 1523134290 4116 32e6abd27229755a83a8b7f18e583890 ""
  "/usr/local/texlive/2018/texmf-dist/tex/latex/amsmath/amstext.sty" 1523134290 2432 8ff93b1137020e8f21930562a874ae66 ""
  "/usr/local/texlive/2018/texmf-dist/tex/latex/base/article.cls" 1523050425 19823 fcbc01552b07b608574cbf8e1977e0c0 ""
  "/usr/local/texlive/2018/texmf-dist/tex/latex/base/ifthen.sty" 1523050425 5161 c004ea5a189d4bdcf42e86754ad75a58 ""
  "/usr/local/texlive/2018/texmf-dist/tex/latex/base/size10.clo" 1523050425 8294 b0f177401f895563eb19304d2389582d ""
  "/usr/local/texlive/2018/texmf-dist/tex/latex/blkarray/blkarray.sty" 1480098823 72396 c58b7130fcef93ea5c7323ef15cc4bc6 ""
  "/usr/local/texlive/2018/texmf-dist/tex/latex/booktabs/booktabs.sty" 1480098823 5869 94335281ffcab47f341cf07ea8220e30 ""
  "/usr/local/texlive/2018/texmf-dist/tex/latex/eso-pic/eso-pic.sty" 1480098827 11954 3abdeb9fbc956bcd048295dd83dd5e7c ""
  "/usr/local/texlive/2018/texmf-dist/tex/latex/float/float.sty" 1480098828 6749 16d2656a1984957e674b149555f1ea1d ""
  "/usr/local/texlive/2018/texmf-dist/tex/latex/forloop/forloop.sty" 1480098829 1717 5de015d7c82d914c51b065065ca9fd34 ""
  "/usr/local/texlive/2018/texmf-dist/tex/latex/graphics-cfg/color.cfg" 1480098830 1213 620bba36b25224fa9b7e1ccb4ecb76fd ""
  "/usr/local/texlive/2018/texmf-dist/tex/latex/graphics-cfg/graphics.cfg" 1480098830 1224 978390e9c2234eab29404bc21b268d1e ""
  "/usr/local/texlive/2018/texmf-dist/tex/latex/graphics-def/pdftex.def" 1515537368 17334 520b9b85ad8a2a48eda3f643e27a5179 ""
  "/usr/local/texlive/2018/texmf-dist/tex/latex/graphics/color.sty" 1523134385 7028 112f909feb676788e7ea1c5b0b76320f ""
  "/usr/local/texlive/2018/texmf-dist/tex/latex/graphics/graphics.sty" 1523134385 15272 5a97061616e0c8b2aa79c6615ff769f4 ""
  "/usr/local/texlive/2018/texmf-dist/tex/latex/graphics/graphicx.sty" 1523134385 9063 d0a305975932762117cd1f06a582f896 ""
  "/usr/local/texlive/2018/texmf-dist/tex/latex/graphics/keyval.sty" 1523134385 2591 6404d0c7d28505fb38ce0d86c2e28ae7 ""
  "/usr/local/texlive/2018/texmf-dist/tex/latex/graphics/trig.sty" 1523134385 3977 cb9221976ed8a183afad65b59aa8629a ""
  "/usr/local/texlive/2018/texmf-dist/tex/latex/hyperref/hpdftex.def" 1518041854 51699 9069fc983fff0db91d59a15af144ad62 ""
  "/usr/local/texlive/2018/texmf-dist/tex/latex/hyperref/hyperref.sty" 1518041854 234088 2c849389d62d41c593d9f5176c4116ab ""
  "/usr/local/texlive/2018/texmf-dist/tex/latex/hyperref/nameref.sty" 1480098831 12949 81e4e808884a8f0e276b69410e234656 ""
  "/usr/local/texlive/2018/texmf-dist/tex/latex/hyperref/pd1enc.def" 1518041854 14098 4e70bf396c7c265bd8b0e5cab3fd3d4d ""
  "/usr/local/texlive/2018/texmf-dist/tex/latex/latexconfig/epstopdf-sys.cfg" 1480098833 678 4792914a8f45be57bb98413425e4c7af ""
  "/usr/local/texlive/2018/texmf-dist/tex/latex/latexconfig/hyperref.cfg" 1480098833 235 6031e5765137be07eed51a510b2b8fb7 ""
  "/usr/local/texlive/2018/texmf-dist/tex/latex/microtype/microtype-pdftex.def" 1516054892 48846 b8c9ed2ca71a7e344e0f79f738d33d61 ""
  "/usr/local/texlive/2018/texmf-dist/tex/latex/microtype/microtype.cfg" 1516054892 24263 58b62b9b15af10c2a301a884405289a4 ""
  "/usr/local/texlive/2018/texmf-dist/tex/latex/microtype/microtype.sty" 1516054892 71031 8c1efead07338247d562f79303165b66 ""
  "/usr/local/texlive/2018/texmf-dist/tex/latex/microtype/mt-cmr.cfg" 1516054892 22870 180ea2dc1e81d6b0ff570aa0250865ae ""
  "/usr/local/texlive/2018/texmf-dist/tex/latex/microtype/mt-ptm.cfg" 1516054892 12391 cdf0f7aa1c8a3a34b9fbb297c96ea93d ""
  "/usr/local/texlive/2018/texmf-dist/tex/latex/natbib/natbib.sty" 1480098835 45456 1c8843383c0bd05870c45fa0ebea6cc2 ""
  "/usr/local/texlive/2018/texmf-dist/tex/latex/oberdiek/auxhook.sty" 1480098836 3834 4363110eb0ef1eb2b71c8fcbcdb6c357 ""
  "/usr/local/texlive/2018/texmf-dist/tex/latex/oberdiek/epstopdf-base.sty" 1480098836 12095 5337833c991d80788a43d3ce26bd1c46 ""
  "/usr/local/texlive/2018/texmf-dist/tex/latex/oberdiek/grfext.sty" 1480098836 7075 2fe3d848bba95f139de11ded085e74aa ""
  "/usr/local/texlive/2018/texmf-dist/tex/latex/oberdiek/kvoptions.sty" 1480098836 22417 1d9df1eb66848aa31b18a593099cf45c ""
  "/usr/local/texlive/2018/texmf-dist/tex/latex/oberdiek/rerunfilecheck.sty" 1480098836 9581 023642318cef9f4677efe364de1e2a27 ""
  "/usr/local/texlive/2018/texmf-dist/tex/latex/psnfss/omlptm.fd" 1480098837 577 008ea4bacb8ccf8c2a39dc94e000ef1f ""
  "/usr/local/texlive/2018/texmf-dist/tex/latex/psnfss/ot1pcr.fd" 1480098837 985 1ed784d7bfe47179f3550d2303b073f8 ""
  "/usr/local/texlive/2018/texmf-dist/tex/latex/psnfss/ot1ptm.fd" 1480098837 961 15056f4a61917ceed3a44e4ac11fcc52 ""
  "/usr/local/texlive/2018/texmf-dist/tex/latex/psnfss/times.sty" 1480098837 857 6c716f26c5eadfb81029fcd6ce2d45e6 ""
  "/usr/local/texlive/2018/texmf-dist/tex/latex/subfigure/subfigure.cfg" 1480098839 2062 a0e7d66e09e508f51289a656aec06ed2 ""
  "/usr/local/texlive/2018/texmf-dist/tex/latex/subfigure/subfigure.sty" 1480098839 15188 91281c7ddbccfa54a8e0c3b56ab5aa72 ""
  "/usr/local/texlive/2018/texmf-dist/tex/latex/tools/calc.sty" 1523050425 10212 357072c1d20578a30d6387d8a22e72ab ""
  "/usr/local/texlive/2018/texmf-dist/tex/latex/url/url.sty" 1480098842 12796 8edb7d69a20b857904dd0ea757c14ec9 ""
  "/usr/local/texlive/2018/texmf-dist/web2c/texmf.cnf" 1522066949 33362 cf75436e19743e94a92a6b1b9183c434 ""
  "/usr/local/texlive/2018/texmf-var/fonts/map/pdftex/updmap/pdftex.map" 1523934492 2717033 f61a5287d9c22a39a74f1979fe3f905c ""
  "/usr/local/texlive/2018/texmf-var/web2c/pdftex/pdflatex.fmt" 1523934516 4220280 10cab8fbd7c5a7c52aba9917e190d018 ""
  "/usr/local/texlive/2018/texmf.cnf" 1523934483 577 0b39adfd7c93507ff20c9c14c2f1a33f ""
  "algorithm.sty" 1509376974 2302 d2b29bd8abe4b311c2e3cf0641b4549b ""
  "algorithmic.sty" 1509376974 7615 a7a253154ed6d7d83141571d55bc3515 ""
  "fancyhdr.sty" 1509376974 21006 088e3513a90ac3aa21515dd46e858ae4 ""
  "icml2018.sty" 1509376974 27191 e6739bad8dc624ef182cd77467319b44 ""
  "paper.aux" 1552951088 1077 15d3cc3374136a9292f36dc5b260c5f6 ""
  "paper.bbl" 1552935174 1711 f9dfdffa634f9aeb2ffaf924d34f1b9a "bibtex paper"
  "paper.out" 1552951088 0 d41d8cd98f00b204e9800998ecf8427e ""
  "paper.tex" 1552951085 49393 6bf2a984039c13fb08379d52250b37c3 ""
  (generated)
  "/Users/Andrew/Documents/GraduateSchool/Stanford/2019/WinterQuarter/CS234/project/icml2018_style/paper.log"
  "paper.out"
  "paper.pdf"
  "paper.log"
  "/Users/Andrew/Documents/GraduateSchool/Stanford/2019/WinterQuarter/CS234/project/icml2018_style/paper.pdf"
  "paper.aux"
