\relax 
\providecommand\hyper@newdestlabel[2]{}
\providecommand\HyperFirstAtBeginDocument{\AtBeginDocument}
\HyperFirstAtBeginDocument{\ifx\hyper@anchor\@undefined
\global\let\oldcontentsline\contentsline
\gdef\contentsline#1#2#3#4{\oldcontentsline{#1}{#2}{#3}}
\global\let\oldnewlabel\newlabel
\gdef\newlabel#1#2{\newlabelxx{#1}#2}
\gdef\newlabelxx#1#2#3#4#5#6{\oldnewlabel{#1}{{#2}{#3}}}
\AtEndDocument{\ifx\hyper@anchor\@undefined
\let\contentsline\oldcontentsline
\let\newlabel\oldnewlabel
\fi}
\fi}
\global\let\hyper@last\relax 
\gdef\HyperFirstAtBeginDocument#1{#1}
\providecommand\HyField@AuxAddToFields[1]{}
\providecommand\HyField@AuxAddToCoFields[2]{}
\citation{consortium}
\citation{lasso}
\citation{data}
\citation{linear}
\citation{ucb}
\citation{lasso}
\bibdata{references.bib}
\bibcite{consortium}{{1}{2009}{{con}}{{}}}
\bibcite{lasso}{{2}{2015}{{Bastani \& Bayati}}{{Bastani and Bayati}}}
\bibcite{ucb}{{3}{2011}{{Chu et~al.}}{{Chu, Li, Reyzin, and Schapire}}}
\bibcite{data}{{4}{}{{PharmGKB}}{{}}}
\bibcite{linear}{{5}{}{{Szepesvari}}{{}}}
\bibstyle{icml2018}
